{
  "projects": [
    {
      "title": "Projeto Chines",
      "id": "70j5YQ0E",
      "description": "dasdsa",
      "dir": "C:/Users/Filipe/Documents/Code/electron-lowdb",
      "command": "npm start",
      "folderId": "Presentation Manager das ddas",
      "icon": "🎎"
    },
    {
      "title": "Novo Projeto",
      "icon": "🎈",
      "description": "Descrição do projeto",
      "id": "rE0b_U-y",
      "dir": "C:\\Users\\Filipe\\Google Drive\\Personal\\Presentator.js\\receptor",
      "command": "npm start"
    },
    {
      "title": "Esse",
      "icon": "☕",
      "description": "Project Manager 2.0",
      "id": "d4uWY-I6",
      "dir": "C:\\Users\\Filipe\\Documents\\Code\\project-manager-2.0",
      "command": "npm start"
    },
    {
      "title": "Novo Projeto",
      "icon": "🎈",
      "description": "Descrição do projeto",
      "id": "cv45wZII"
    },
    {
      "title": "Novo Projeto",
      "icon": "🎈",
      "description": "Descrição do projeto",
      "id": "RfkAO7wrf"
    },
    {
      "title": "Novo Projeto",
      "icon": "🎈",
      "description": "Descrição do projeto",
      "id": "CJuZ8PLH"
    },
    {
      "title": "Novo Projeto",
      "icon": "🎈",
      "description": "Descrição do projeto",
      "id": "rOleL4UTY"
    },
    {
      "title": "Novo Projeto",
      "icon": "🎈",
      "description": "Descrição do projeto",
      "id": "PUJvorzF"
    },
    {
      "title": "Novo Projeto",
      "icon": "🎈",
      "description": "Descrição do projeto",
      "id": "yfDEjD2AE"
    },
    {
      "title": "Novo Projeto",
      "icon": "🎈",
      "description": "Descrição do projeto",
      "id": "JP6S5s1r8"
    },
    {
      "title": "Novo Projeto",
      "icon": "🎈",
      "description": "Descrição do projeto",
      "id": "mf45Q7AD"
    },
    {
      "title": "Novo Projeto",
      "icon": "🎈",
      "description": "Descrição do projeto",
      "id": "-yy9kw78E"
    },
    {
      "title": "Novo Projeto",
      "icon": "🎈",
      "description": "Descrição do projeto",
      "id": "XXKzVRCA"
    },
    {
      "title": "Novo Projeto",
      "icon": "🎈",
      "description": "Descrição do projeto",
      "id": "J5LMW1ZEO"
    },
    {
      "title": "Novo Projeto",
      "icon": "🎈",
      "description": "Descrição do projeto",
      "id": "m4jFFZRE"
    },
    {
      "title": "Novo Projeto",
      "icon": "🎈",
      "description": "Descrição do projeto",
      "id": "pRVbxFAh"
    },
    {
      "title": "Jogo da Cobrinha",
      "icon": "🐍",
      "description": "Descrição do projeto",
      "id": "n9unPlvU",
      "dir": "C:\\Users\\Filipe\\Documents\\Code\\project-manager",
      "command": ""
    }
  ],
  "folders": []
}